{
	"info": {
		"_postman_id": "b78ba19b-b61f-4bb8-86ea-33d5e663159d",
		"name": "PMD",
		"schema": "https://schema.getpostman.com/json/collection/v2.1.0/collection.json"
	},
	"item": [
		{
			"name": "List mail api",
			"request": {
				"method": "POST",
				"header": [],
				"body": {
					"mode": "raw",
					"raw": ""
				},
				"url": {
					"raw": "http://localhost:8080/PMD-new/ListMailApi?rwInfo={user_id: 1, pageNumber: 1}",
					"protocol": "http",
					"host": [
						"localhost"
					],
					"port": "8080",
					"path": [
						"PMD-new",
						"ListMailApi"
					],
					"query": [
						{
							"key": "rwInfo",
							"value": "{user_id: 1, pageNumber: 1}"
						}
					]
				},
				"description": "Get list mail belong to user_id"
			},
			"response": []
		},
		{
			"name": "http://localhost:8080/PMD-new/Update_flag?rwInfo={rw_id: 1, flag: true}",
			"request": {
				"method": "POST",
				"header": [],
				"body": {
					"mode": "raw",
					"raw": ""
				},
				"url": {
					"raw": "http://localhost:8080/PMD-new/Update_flag?rwInfo={rw_id: 1, flag: true}",
					"protocol": "http",
					"host": [
						"localhost"
					],
					"port": "8080",
					"path": [
						"PMD-new",
						"Update_flag"
					],
					"query": [
						{
							"key": "rwInfo",
							"value": "{rw_id: 1, flag: true}"
						}
					]
				},
				"description": "Update flag to result_wait"
			},
			"response": []
		}
	]
}